^C:\USERS\CLEM\DOCUMENTS\BINAURAL-PFA\COMMUNICATION\BUILD\OSCPACK.DIR\DEBUG\IPENDPOINTNAME.OBJ|C:\USERS\CLEM\DOCUMENTS\BINAURAL-PFA\COMMUNICATION\BUILD\OSCPACK.DIR\DEBUG\NETWORKINGUTILS.OBJ|C:\USERS\CLEM\DOCUMENTS\BINAURAL-PFA\COMMUNICATION\BUILD\OSCPACK.DIR\DEBUG\OSCOUTBOUNDPACKETSTREAM.OBJ|C:\USERS\CLEM\DOCUMENTS\BINAURAL-PFA\COMMUNICATION\BUILD\OSCPACK.DIR\DEBUG\OSCPRINTRECEIVEDELEMENTS.OBJ|C:\USERS\CLEM\DOCUMENTS\BINAURAL-PFA\COMMUNICATION\BUILD\OSCPACK.DIR\DEBUG\OSCRECEIVEDELEMENTS.OBJ|C:\USERS\CLEM\DOCUMENTS\BINAURAL-PFA\COMMUNICATION\BUILD\OSCPACK.DIR\DEBUG\OSCTYPES.OBJ|C:\USERS\CLEM\DOCUMENTS\BINAURAL-PFA\COMMUNICATION\BUILD\OSCPACK.DIR\DEBUG\UDPSOCKET.OBJ
C:\PROGRAM FILES (X86)\MICROSOFT VISUAL STUDIO 11.0\VC\BIN\LINK.EXE
C:\WINDOWS\SYSTEM32\TZRES.DLL
C:\USERS\CLEM\DOCUMENTS\BINAURAL-PFA\COMMUNICATION\BUILD\OSCPACK.DIR\DEBUG\IPENDPOINTNAME.OBJ
C:\USERS\CLEM\DOCUMENTS\BINAURAL-PFA\COMMUNICATION\BUILD\OSCPACK.DIR\DEBUG\NETWORKINGUTILS.OBJ
C:\USERS\CLEM\DOCUMENTS\BINAURAL-PFA\COMMUNICATION\BUILD\OSCPACK.DIR\DEBUG\UDPSOCKET.OBJ
C:\USERS\CLEM\DOCUMENTS\BINAURAL-PFA\COMMUNICATION\BUILD\OSCPACK.DIR\DEBUG\OSCTYPES.OBJ
C:\USERS\CLEM\DOCUMENTS\BINAURAL-PFA\COMMUNICATION\BUILD\OSCPACK.DIR\DEBUG\OSCRECEIVEDELEMENTS.OBJ
C:\USERS\CLEM\DOCUMENTS\BINAURAL-PFA\COMMUNICATION\BUILD\OSCPACK.DIR\DEBUG\OSCPRINTRECEIVEDELEMENTS.OBJ
C:\USERS\CLEM\DOCUMENTS\BINAURAL-PFA\COMMUNICATION\BUILD\OSCPACK.DIR\DEBUG\OSCOUTBOUNDPACKETSTREAM.OBJ
C:\WINDOWS\GLOBALIZATION\SORTING\SORTDEFAULT.NLS
