^C:\USERS\RÉMI\DOCUMENTS\VISUAL STUDIO 2012\PROJECTS\OPEN_CV_TEST\OPEN_CV_TEST\MAIN.CPP
C:\USERS\RéMI\DOCUMENTS\VISUAL STUDIO 2012\PROJECTS\OPEN_CV_TEST\OPEN_CV_TEST\DEBUG\MAIN.OBJ
C:\USERS\RÉMI\DOCUMENTS\VISUAL STUDIO 2012\PROJECTS\OPEN_CV_TEST\OPEN_CV_TEST\DEBUG\VC110.PDB
