^C:\USERS\RÉMI\DOCUMENTS\VISUAL STUDIO 2013\PROJECTS\OPEN_CV_TEST\OPEN_CV_TEST\MAIN.CPP
/c /IC:\opencv248\build\include /Zi /nologo /W3 /WX- /O2 /Oi /GL /D WIN32 /D NDEBUG /D _CONSOLE /D _UNICODE /D UNICODE /Gm- /EHsc /MD /GS /Gy /fp:precise /Zc:wchar_t /Zc:forScope /Fo"X64\RELEASE\\" /Fd"X64\RELEASE\VC120.PDB" /Gd /TP C:\USERS\RÉMI\DOCUMENTS\VISUAL STUDIO 2013\PROJECTS\OPEN_CV_TEST\OPEN_CV_TEST\MAIN.CPP
^C:\USERS\RÉMI\DOCUMENTS\VISUAL STUDIO 2013\PROJECTS\OPEN_CV_TEST - COPIE\OPEN_CV_TEST\MAIN.CPP
/c /I"C:\Program Files\Microsoft SDKs\Kinect\v1.8\\inc" /IC:\opencv248\build\include /Zi /nologo /W3 /WX- /O2 /Oi /GL /D WIN32 /D NDEBUG /D _CONSOLE /D _UNICODE /D UNICODE /Gm- /EHsc /MD /GS /Gy /fp:precise /Zc:wchar_t /Zc:forScope /Fo"X64\RELEASE\\" /Fd"X64\RELEASE\VC120.PDB" /Gd /TP C:\USERS\RÉMI\DOCUMENTS\VISUAL STUDIO 2013\PROJECTS\OPEN_CV_TEST - COPIE\OPEN_CV_TEST\MAIN.CPP
^C:\USERS\RÉMI\DOCUMENTS\VISUAL STUDIO 2013\PROJECTS\OPEN_CV_TEST - COPIE\OPEN_CV_TEST\SOURCE.CPP
/c /I"C:\Program Files\Microsoft SDKs\Kinect\v1.8\\inc" /IC:\opencv248\build\include /Zi /nologo /W3 /WX- /O2 /Oi /GL /D WIN32 /D NDEBUG /D _CONSOLE /D _UNICODE /D UNICODE /Gm- /EHsc /MD /GS /Gy /fp:precise /Zc:wchar_t /Zc:forScope /Fo"X64\RELEASE\\" /Fd"X64\RELEASE\VC120.PDB" /Gd /TP C:\USERS\RÉMI\DOCUMENTS\VISUAL STUDIO 2013\PROJECTS\OPEN_CV_TEST - COPIE\OPEN_CV_TEST\SOURCE.CPP
^C:\USERS\RÉMI\DOCUMENTS\VISUAL STUDIO 2013\PROJECTS\KINECT QUI MARCHE\OPEN_CV_TEST\MAIN.CPP
/c /I"C:\Program Files\Microsoft SDKs\Kinect\v1.8\\inc" /IC:\opencv248\build\include /Zi /nologo /W3 /WX- /O2 /Oi /GL /D WIN32 /D NDEBUG /D _CONSOLE /D _UNICODE /D UNICODE /Gm- /EHsc /MD /GS /Gy /fp:precise /Zc:wchar_t /Zc:forScope /Fo"X64\RELEASE\\" /Fd"X64\RELEASE\VC120.PDB" /Gd /TP C:\USERS\RÉMI\DOCUMENTS\VISUAL STUDIO 2013\PROJECTS\KINECT QUI MARCHE\OPEN_CV_TEST\MAIN.CPP
^C:\USERS\RÉMI\DOCUMENTS\VISUAL STUDIO 2013\PROJECTS\KINECT QUI MARCHE\OPEN_CV_TEST\SOURCE.CPP
/c /I"C:\Program Files\Microsoft SDKs\Kinect\v1.8\\inc" /IC:\opencv248\build\include /Zi /nologo /W3 /WX- /O2 /Oi /GL /D WIN32 /D NDEBUG /D _CONSOLE /D _UNICODE /D UNICODE /Gm- /EHsc /MD /GS /Gy /fp:precise /Zc:wchar_t /Zc:forScope /Fo"X64\RELEASE\\" /Fd"X64\RELEASE\VC120.PDB" /Gd /TP C:\USERS\RÉMI\DOCUMENTS\VISUAL STUDIO 2013\PROJECTS\KINECT QUI MARCHE\OPEN_CV_TEST\SOURCE.CPP
