^C:\USERS\CLEM\DOCUMENTS\BINAURAL-PFA\COMMUNICATION\TESTS\TEST_RECEIVER.CPP
C:\USERS\CLEM\DOCUMENTS\BINAURAL-PFA\COMMUNICATION\BUILD\TEST_RECEIVER.DIR\DEBUG\TEST_RECEIVER.OBJ
C:\USERS\CLEM\DOCUMENTS\BINAURAL-PFA\COMMUNICATION\BUILD\TEST_RECEIVER.DIR\DEBUG\VC110.PDB
